…
Check the data:

``` r
cpi_nies %>%
  filter(date >= '2005-01-01') %>%
  group_by(iso2c) %>%
  count() %>%
  arrange(n)
```

    ## # A tibble: 37 x 2
    ## # Groups:   iso2c [37]
    ##    iso2c     n
    ##    <chr> <int>
    ##  1 TW        2
    ##  2 VE        9
    ##  3 AE       13
    ##  4 IR       13
    ##  5 BD       14
    ##  6 EG       14
    ##  7 IN       14
    ##  8 KW       14
    ##  9 MA       14
    ## 10 MY       14
    ## # … with 27 more rows
…
